module gitlab.com/alextheloafer/grpc-example

go 1.15

require (
	github.com/golang/protobuf v1.4.3
	golang.org/x/net v0.0.0-20201202161906-c7110b5ffcbb // indirect
	golang.org/x/sys v0.0.0-20201202213521-69691e467435 // indirect
	golang.org/x/text v0.3.4 // indirect
	google.golang.org/genproto v0.0.0-20201203001206-6486ece9c497 // indirect
	google.golang.org/grpc v1.34.0
	google.golang.org/grpc/cmd/protoc-gen-go-grpc v1.0.1 // indirect
	google.golang.org/protobuf v1.25.0
)
